(1300,100) (1) ((0,0))
(1300,50) (1) ((0,0))
(1290,80) (1) ((0,0))
(1280,60) (1) ((0,0))
(1299,70) (1) ((0,0))
(1285,90) (1) ((0,0))
(1240,100) (1) ((0,0))
(1200,100) (1) ((0,0))
(1220,70) (1) ((0,0))
(1260,100) (1) ((0,0))
(1260,110) (1) ((0,0))
(1260,90) (1) ((0,0))
(100,100) (5,10,15,20) ((1,-1),(-1,-1),(2,-1),(0,0))
(500,300) (4,10,15,21) ((1,1),(-1,1),(-1,-1),(0,0))
(200,500) (5,10) ((2,-2),(0,0))
(1200,450) (3,9,15) ((-1,0),(-2,0),(0,0))
(1000,800) (5,6) ((-2,2),(0,0))
(780,200) (4,8,15,17) ((-1,1),(1,0),(0,1),(0,0))
(650,50) (5,10,15,16) ((-1,0),(1,-1),(0,-1),(0,0))
(210,850) (10,11) ((2,2),(0,0))
e=100
